24

3 22
7
t 0 11 e
t 1 10 n
h 1 0 n
t 0 6 n
f 0 16 e
r 2 9 n
t 2 15 w
23 186

47 12
1
t 28 4 w
148 67

30 37
6
h 20 25 w
t 3 10 w
f 17 6 n
r 14 21 n
h 14 17 n
f 16 26 w
27 86

14 11
5
t 11 7 n
h 2 3 n
t 3 5 n
r 11 9 s
f 13 5 s
107 3

17 43
3
h 2 31 w
f 8 7 s
f 12 40 w
94 200

14 34
8
f 6 7 n
t 1 17 e
r 12 23 w
f 5 1 s
t 10 2 n
f 9 10 w
f 4 27 n
r 9 24 n
173 84

44 1
2
r 30 0 s
f 2 0 s
39 199

30 23
1
h 1 1 s
189 82

46 20
5
f 15 16 e
t 38 1 n
f 29 16 w
h 30 6 n
t 2 18 n
127 69

33 27
5
r 21 12 e
h 30 12 w
r 24 19 w
h 12 3 s
h 2 13 s
36 44

26 28
6
t 13 8 w
r 5 12 e
t 1 10 e
f 5 10 w
r 19 23 n
f 23 15 w
113 141

3 49
3
f 2 39 e
h 2 22 w
r 0 37 w
35 200

1 35
1
r 0 19 s
83 127

6 15
10
h 1 13 n
r 2 13 n
t 1 8 e
h 5 0 s
r 2 5 w
r 4 3 s
t 0 7 e
r 2 8 w
r 2 13 w
r 3 13 w
145 79

2 37
3
h 0 8 w
h 0 9 w
h 1 4 e
125 116

31 3
7
h 9 0 n
r 23 2 e
t 28 1 w
h 19 0 s
t 8 2 e
t 24 2 n
f 27 1 w
183 178

1 36
8
t 0 8 n
r 0 14 n
h 0 4 n
f 0 23 s
t 0 19 s
r 0 21 s
r 0 33 n
r 0 35 e
164 61

11 3
2
t 7 2 w
f 5 2 n
145 192

13 31
6
f 5 25 s
r 2 5 e
f 9 5 e
f 3 2 n
r 10 28 w
r 9 4 w
135 196

34 40
7
h 2 6 w
f 14 36 s
f 33 31 n
r 24 10 n
t 7 26 n
h 7 20 s
t 31 30 s
85 100

8 43
1
t 2 5 s
56 19

50 16
1
f 5 14 n
46 152

16 19
7
r 5 16 e
f 14 10 w
f 10 4 s
r 14 11 s
h 12 12 n
t 1 18 n
t 4 1 s
101 191

14 28
8
h 6 23 e
h 2 22 w
t 13 6 e
f 12 19 e
f 8 12 w
f 7 25 n
h 3 10 e
f 12 27 w
116 138
