20

2 20
3
h 0 4 s
f 0 8 w
t 1 11 e
39 2

8 12
13
h 5 4 s
t 6 9 n
f 5 0 e
t 4 11 n
t 0 4 s
h 3 8 s
f 6 8 n
f 6 11 n
h 7 8 n
r 1 0 n
r 5 9 n
t 4 3 e
r 3 8 e
4 1

20 10
6
r 7 6 e
t 1 8 n
r 5 1 w
h 0 4 s
f 3 4 w
f 17 6 s
5 7

13 16
6
h 9 13 n
r 9 2 n
h 3 0 n
f 9 7 n
r 7 12 s
r 3 9 e
27 4

2 13
11
r 1 7 s
f 1 6 n
f 1 12 w
r 1 8 w
r 1 6 n
f 1 0 e
h 0 1 s
f 1 11 e
h 1 8 w
h 1 5 s
f 0 12 s
49 4

1 2
1
h 0 1 e
52 4

7 8
8
t 4 2 e
r 3 1 e
h 2 1 s
h 2 4 s
f 0 5 e
t 2 0 s
t 2 0 e
r 3 0 e
30 2

20 6
2
r 1 4 n
h 11 1 s
5 6

20 17
12
h 7 16 s
t 15 10 e
r 11 7 n
f 14 9 s
h 17 14 w
r 8 7 n
f 7 3 e
t 3 2 e
r 13 16 s
r 11 10 e
t 0 14 s
r 10 14 e
55 9

11 15
9
t 3 4 w
t 7 2 n
h 5 13 n
f 7 8 e
r 7 10 n
f 10 0 s
f 7 5 s
f 4 7 s
t 8 4 w
49 10

12 16
15
r 5 5 e
f 8 8 w
r 2 4 s
r 0 8 n
h 7 3 n
r 11 7 s
t 0 2 w
r 9 9 w
h 9 14 s
t 2 14 s
f 7 8 s
f 0 11 n
t 0 10 e
r 6 10 n
t 10 4 s
35 2

6 19
8
h 5 7 e
f 5 14 n
h 1 18 w
r 3 12 w
h 4 13 s
r 3 7 n
h 2 7 s
r 3 9 w
53 2

16 10
4
r 0 3 s
f 12 7 e
t 10 5 w
r 12 8 s
6 9

15 13
1
r 1 4 w
12 10

16 5
6
f 3 0 s
t 4 4 s
f 3 1 n
f 10 1 n
f 13 3 n
r 14 3 w
54 2

15 18
13
f 5 16 n
f 7 16 n
r 7 4 n
f 13 15 w
t 6 1 w
h 4 17 n
h 8 10 w
f 10 5 s
t 6 11 s
f 14 4 n
h 11 8 w
h 2 6 s
h 1 10 n
29 3

15 13
15
r 5 3 n
h 3 4 s
r 0 3 w
h 11 11 s
r 3 11 e
h 4 7 s
r 3 7 n
r 11 11 e
h 13 10 s
f 1 9 w
r 12 11 s
t 10 4 w
t 12 1 n
t 4 3 w
r 8 4 w
48 1

6 12
15
f 1 3 s
f 1 6 e
h 4 2 e
r 2 0 e
r 4 6 w
h 3 8 e
r 1 1 n
r 1 1 w
r 4 1 w
h 0 11 w
f 1 8 e
h 1 2 n
r 4 2 n
h 1 6 e
f 2 8 e
25 6

12 13
12
h 3 12 s
f 1 0 n
t 11 5 w
r 5 6 n
h 3 6 s
r 8 3 e
h 1 4 s
r 2 3 n
f 10 3 n
f 2 11 s
h 5 5 s
h 9 0 n
20 5

9 11
11
h 1 4 s
r 5 0 n
f 8 6 s
t 5 3 e
r 4 6 e
f 0 1 s
h 5 7 e
r 7 1 w
h 7 3 e
t 3 9 n
f 2 6 n
22 4
